
    [
    {
        "field":"ProductId",
        "header":"ProductId"
    },
    {
        "field":"RegionId",
        "header":"RegionId"
    },

    {
        "field":"AdjustedQuantity",
        "header":"Adjusted Quantity"
    },
    {
        "field":"BelurB2R",
        "header":"Belur B2R"
    },
    {
        "field":"Level",
        "header":"Level"
    },
    {
        "field":"Change",
        "header":"Change"
    }
]
