[
  {
    "path": "tabs",
    "component": "MainpagePage",
    "children": [
      {
        "path": "GotoForm",
        "component": "Menu2Page"
      },
      {
        "path": "1",
        "component": "Menu1Page"

      },
      {
        "path": "1/:id",
        "component": "Menu1Page",
        "children": [
          {
            "path": "GotoForm",
            "component": "Menu2Page"
          }
        ]
      },
      {
        "path": "19",
        "component": "Menu2Page"
        //loadChildren: './menu2/menu2.module#Menu2PageModule'
      },
      {
        "path": "7",
        "component": "Menu7Page"
        //loadChildren: './menu7/menu7.module#Menu7PageModule'
      },
      {
        "path": "17",
        "component": "Menu17Page"
        //loadChildren: './menu17/menu17.module#Menu17PageModule'
      }

    ]
  },
  {
    "path": "",
    "component": "MainpagePage"
  }
]